﻿{
  "$schema": "http://json.schemastore.org/launchsettings.json",
  "iisSettings": {
    "windowsAuthentication": false, 
    "anonymousAuthentication": true, 
    "iisExpress": {
      "applicationUrl": "http://localhost:50948",
      "sslPort": 44318
    }
  },
  "profiles": {
    "IIS Express": {
      "commandName": "IISExpress",
      "launchBrowser": true,
      "launchUrl": "swagger",
      "environmentVariables": {
        "ASPNETCORE_ENVIRONMENT": "Development"
      }
    },
	"BookCatalog": {
		"commandName": "Project",
		"launchBrowser": true,
		"launchUrl": "swagger",
		"applicationUrl": "https://localhost:5001;http://localhost:5000",
		"environmentVariables": {
			"ASPNETCORE_ENVIRONMENT": "Development"
		}
	}
  }
}